{
  "formatVersion": 1,
  "database": {
    "version": 1,
    "identityHash": "e72ae65b600ff372747892a28206566a",
    "entities": [
      {
        "tableName": "UserModel",
        "createSql": "CREATE TABLE IF NOT EXISTS `${TABLE_NAME}` (`authKey` TEXT, `userId` INTEGER, `entityId` INTEGER, `userName` TEXT, `userType` TEXT, PRIMARY KEY(`userId`))",
        "fields": [
          {
            "fieldPath": "authKey",
            "columnName": "authKey",
            "affinity": "TEXT",
            "notNull": false
          },
          {
            "fieldPath": "userId",
            "columnName": "userId",
            "affinity": "INTEGER",
            "notNull": false
          },
          {
            "fieldPath": "entityId",
            "columnName": "entityId",
            "affinity": "INTEGER",
            "notNull": false
          },
          {
            "fieldPath": "userName",
            "columnName": "userName",
            "affinity": "TEXT",
            "notNull": false
          },
          {
            "fieldPath": "userType",
            "columnName": "userType",
            "affinity": "TEXT",
            "notNull": false
          }
        ],
        "primaryKey": {
          "columnNames": [
            "userId"
          ],
          "autoGenerate": false
        },
        "indices": [],
        "foreignKeys": []
      },
      {
        "tableName": "BrandListsItem",
        "createSql": "CREATE TABLE IF NOT EXISTS `${TABLE_NAME}` (`brandName` TEXT, `status` INTEGER NOT NULL, `modifiedOn` TEXT, `recordCreationDate` TEXT, `brandCode` TEXT, `brandId` INTEGER NOT NULL, PRIMARY KEY(`brandId`))",
        "fields": [
          {
            "fieldPath": "brandName",
            "columnName": "brandName",
            "affinity": "TEXT",
            "notNull": false
          },
          {
            "fieldPath": "status",
            "columnName": "status",
            "affinity": "INTEGER",
            "notNull": true
          },
          {
            "fieldPath": "modifiedOn",
            "columnName": "modifiedOn",
            "affinity": "TEXT",
            "notNull": false
          },
          {
            "fieldPath": "recordCreationDate",
            "columnName": "recordCreationDate",
            "affinity": "TEXT",
            "notNull": false
          },
          {
            "fieldPath": "brandCode",
            "columnName": "brandCode",
            "affinity": "TEXT",
            "notNull": false
          },
          {
            "fieldPath": "brandId",
            "columnName": "brandId",
            "affinity": "INTEGER",
            "notNull": true
          }
        ],
        "primaryKey": {
          "columnNames": [
            "brandId"
          ],
          "autoGenerate": false
        },
        "indices": [],
        "foreignKeys": []
      },
      {
        "tableName": "ProductCategoryListsItem",
        "createSql": "CREATE TABLE IF NOT EXISTS `${TABLE_NAME}` (`status` INTEGER NOT NULL, `productCategoryCode` TEXT, `modifiedOn` TEXT, `productCategoryId` INTEGER NOT NULL, `recordCreationDate` TEXT, `productCategoryName` TEXT, PRIMARY KEY(`productCategoryId`))",
        "fields": [
          {
            "fieldPath": "status",
            "columnName": "status",
            "affinity": "INTEGER",
            "notNull": true
          },
          {
            "fieldPath": "productCategoryCode",
            "columnName": "productCategoryCode",
            "affinity": "TEXT",
            "notNull": false
          },
          {
            "fieldPath": "modifiedOn",
            "columnName": "modifiedOn",
            "affinity": "TEXT",
            "notNull": false
          },
          {
            "fieldPath": "productCategoryId",
            "columnName": "productCategoryId",
            "affinity": "INTEGER",
            "notNull": true
          },
          {
            "fieldPath": "recordCreationDate",
            "columnName": "recordCreationDate",
            "affinity": "TEXT",
            "notNull": false
          },
          {
            "fieldPath": "productCategoryName",
            "columnName": "productCategoryName",
            "affinity": "TEXT",
            "notNull": false
          }
        ],
        "primaryKey": {
          "columnNames": [
            "productCategoryId"
          ],
          "autoGenerate": false
        },
        "indices": [],
        "foreignKeys": []
      },
      {
        "tableName": "ProductListsItem",
        "createSql": "CREATE TABLE IF NOT EXISTS `${TABLE_NAME}` (`status` INTEGER NOT NULL, `productName` TEXT, `modifiedOn` TEXT, `productCode` TEXT, `recordCreationDate` TEXT, `productId` INTEGER NOT NULL, PRIMARY KEY(`productId`))",
        "fields": [
          {
            "fieldPath": "status",
            "columnName": "status",
            "affinity": "INTEGER",
            "notNull": true
          },
          {
            "fieldPath": "productName",
            "columnName": "productName",
            "affinity": "TEXT",
            "notNull": false
          },
          {
            "fieldPath": "modifiedOn",
            "columnName": "modifiedOn",
            "affinity": "TEXT",
            "notNull": false
          },
          {
            "fieldPath": "productCode",
            "columnName": "productCode",
            "affinity": "TEXT",
            "notNull": false
          },
          {
            "fieldPath": "recordCreationDate",
            "columnName": "recordCreationDate",
            "affinity": "TEXT",
            "notNull": false
          },
          {
            "fieldPath": "productId",
            "columnName": "productId",
            "affinity": "INTEGER",
            "notNull": true
          }
        ],
        "primaryKey": {
          "columnNames": [
            "productId"
          ],
          "autoGenerate": false
        },
        "indices": [],
        "foreignKeys": []
      },
      {
        "tableName": "ModelListsItem",
        "createSql": "CREATE TABLE IF NOT EXISTS `${TABLE_NAME}` (`status` INTEGER NOT NULL, `modelName` TEXT, `modelCode` TEXT, `modifiedOn` TEXT, `productCategoryId` INTEGER NOT NULL, `recordCreationDate` TEXT, `modelType` INTEGER NOT NULL, `productId` INTEGER NOT NULL, `brandId` INTEGER NOT NULL, `serialisedMode` INTEGER NOT NULL, `modelId` INTEGER NOT NULL, PRIMARY KEY(`modelId`))",
        "fields": [
          {
            "fieldPath": "status",
            "columnName": "status",
            "affinity": "INTEGER",
            "notNull": true
          },
          {
            "fieldPath": "modelName",
            "columnName": "modelName",
            "affinity": "TEXT",
            "notNull": false
          },
          {
            "fieldPath": "modelCode",
            "columnName": "modelCode",
            "affinity": "TEXT",
            "notNull": false
          },
          {
            "fieldPath": "modifiedOn",
            "columnName": "modifiedOn",
            "affinity": "TEXT",
            "notNull": false
          },
          {
            "fieldPath": "productCategoryId",
            "columnName": "productCategoryId",
            "affinity": "INTEGER",
            "notNull": true
          },
          {
            "fieldPath": "recordCreationDate",
            "columnName": "recordCreationDate",
            "affinity": "TEXT",
            "notNull": false
          },
          {
            "fieldPath": "modelType",
            "columnName": "modelType",
            "affinity": "INTEGER",
            "notNull": true
          },
          {
            "fieldPath": "productId",
            "columnName": "productId",
            "affinity": "INTEGER",
            "notNull": true
          },
          {
            "fieldPath": "brandId",
            "columnName": "brandId",
            "affinity": "INTEGER",
            "notNull": true
          },
          {
            "fieldPath": "serialisedMode",
            "columnName": "serialisedMode",
            "affinity": "INTEGER",
            "notNull": true
          },
          {
            "fieldPath": "modelId",
            "columnName": "modelId",
            "affinity": "INTEGER",
            "notNull": true
          }
        ],
        "primaryKey": {
          "columnNames": [
            "modelId"
          ],
          "autoGenerate": false
        },
        "indices": [],
        "foreignKeys": []
      },
      {
        "tableName": "SkuListsItem",
        "createSql": "CREATE TABLE IF NOT EXISTS `${TABLE_NAME}` (`status` INTEGER NOT NULL, `skuDescription` TEXT, `modifiedOn` TEXT, `skuCode` TEXT, `productCategoryId` INTEGER NOT NULL, `recordCreationDate` TEXT, `skuName` TEXT, `productId` INTEGER NOT NULL, `skuId` INTEGER NOT NULL, `brandId` INTEGER NOT NULL, `modelId` INTEGER NOT NULL, `colorId` INTEGER NOT NULL, PRIMARY KEY(`skuId`))",
        "fields": [
          {
            "fieldPath": "status",
            "columnName": "status",
            "affinity": "INTEGER",
            "notNull": true
          },
          {
            "fieldPath": "skuDescription",
            "columnName": "skuDescription",
            "affinity": "TEXT",
            "notNull": false
          },
          {
            "fieldPath": "modifiedOn",
            "columnName": "modifiedOn",
            "affinity": "TEXT",
            "notNull": false
          },
          {
            "fieldPath": "skuCode",
            "columnName": "skuCode",
            "affinity": "TEXT",
            "notNull": false
          },
          {
            "fieldPath": "productCategoryId",
            "columnName": "productCategoryId",
            "affinity": "INTEGER",
            "notNull": true
          },
          {
            "fieldPath": "recordCreationDate",
            "columnName": "recordCreationDate",
            "affinity": "TEXT",
            "notNull": false
          },
          {
            "fieldPath": "skuName",
            "columnName": "skuName",
            "affinity": "TEXT",
            "notNull": false
          },
          {
            "fieldPath": "productId",
            "columnName": "productId",
            "affinity": "INTEGER",
            "notNull": true
          },
          {
            "fieldPath": "skuId",
            "columnName": "skuId",
            "affinity": "INTEGER",
            "notNull": true
          },
          {
            "fieldPath": "brandId",
            "columnName": "brandId",
            "affinity": "INTEGER",
            "notNull": true
          },
          {
            "fieldPath": "modelId",
            "columnName": "modelId",
            "affinity": "INTEGER",
            "notNull": true
          },
          {
            "fieldPath": "colorId",
            "columnName": "colorId",
            "affinity": "INTEGER",
            "notNull": true
          }
        ],
        "primaryKey": {
          "columnNames": [
            "skuId"
          ],
          "autoGenerate": false
        },
        "indices": [],
        "foreignKeys": []
      },
      {
        "tableName": "SerialMaster",
        "createSql": "CREATE TABLE IF NOT EXISTS `${TABLE_NAME}` (`SerialMasterId` TEXT NOT NULL, `SkuId` TEXT, `SalesChannelId` TEXT, `RetailerId` TEXT, `SerialNumber1` TEXT, `SerialNumber2` TEXT, `SerialNumber3` TEXT, `SerialNumber4` TEXT, `StockBinTypeMasterId` TEXT, `GrnDate` TEXT, `RecordCreationDate` TEXT, `ModifiedOn` TEXT, `OwnerMode` TEXT, PRIMARY KEY(`SerialMasterId`))",
        "fields": [
          {
            "fieldPath": "SerialMasterId",
            "columnName": "SerialMasterId",
            "affinity": "TEXT",
            "notNull": true
          },
          {
            "fieldPath": "SkuId",
            "columnName": "SkuId",
            "affinity": "TEXT",
            "notNull": false
          },
          {
            "fieldPath": "SalesChannelId",
            "columnName": "SalesChannelId",
            "affinity": "TEXT",
            "notNull": false
          },
          {
            "fieldPath": "RetailerId",
            "columnName": "RetailerId",
            "affinity": "TEXT",
            "notNull": false
          },
          {
            "fieldPath": "SerialNumber1",
            "columnName": "SerialNumber1",
            "affinity": "TEXT",
            "notNull": false
          },
          {
            "fieldPath": "SerialNumber2",
            "columnName": "SerialNumber2",
            "affinity": "TEXT",
            "notNull": false
          },
          {
            "fieldPath": "SerialNumber3",
            "columnName": "SerialNumber3",
            "affinity": "TEXT",
            "notNull": false
          },
          {
            "fieldPath": "SerialNumber4",
            "columnName": "SerialNumber4",
            "affinity": "TEXT",
            "notNull": false
          },
          {
            "fieldPath": "StockBinTypeMasterId",
            "columnName": "StockBinTypeMasterId",
            "affinity": "TEXT",
            "notNull": false
          },
          {
            "fieldPath": "GrnDate",
            "columnName": "GrnDate",
            "affinity": "TEXT",
            "notNull": false
          },
          {
            "fieldPath": "RecordCreationDate",
            "columnName": "RecordCreationDate",
            "affinity": "TEXT",
            "notNull": false
          },
          {
            "fieldPath": "ModifiedOn",
            "columnName": "ModifiedOn",
            "affinity": "TEXT",
            "notNull": false
          },
          {
            "fieldPath": "OwnerMode",
            "columnName": "OwnerMode",
            "affinity": "TEXT",
            "notNull": false
          }
        ],
        "primaryKey": {
          "columnNames": [
            "SerialMasterId"
          ],
          "autoGenerate": false
        },
        "indices": [],
        "foreignKeys": []
      }
    ],
    "setupQueries": [
      "CREATE TABLE IF NOT EXISTS room_master_table (id INTEGER PRIMARY KEY,identity_hash TEXT)",
      "INSERT OR REPLACE INTO room_master_table (id,identity_hash) VALUES(42, \"e72ae65b600ff372747892a28206566a\")"
    ]
  }
}