{
  "formatVersion": 1,
  "database": {
    "version": 17,
    "identityHash": "118320bc9fd318237876935a3db17dcc",
    "entities": [
      {
        "tableName": "UserModel",
        "createSql": "CREATE TABLE IF NOT EXISTS `${TABLE_NAME}` (`authKey` TEXT, `userId` INTEGER, `entityId` TEXT, `userName` TEXT, `userType` TEXT, `isOpeningStockEntered` TEXT, `retName` TEXT, `lastLogin` TEXT, PRIMARY KEY(`userId`))",
        "fields": [
          {
            "fieldPath": "authKey",
            "columnName": "authKey",
            "affinity": "TEXT",
            "notNull": false
          },
          {
            "fieldPath": "userId",
            "columnName": "userId",
            "affinity": "INTEGER",
            "notNull": false
          },
          {
            "fieldPath": "entityId",
            "columnName": "entityId",
            "affinity": "TEXT",
            "notNull": false
          },
          {
            "fieldPath": "userName",
            "columnName": "userName",
            "affinity": "TEXT",
            "notNull": false
          },
          {
            "fieldPath": "userType",
            "columnName": "userType",
            "affinity": "TEXT",
            "notNull": false
          },
          {
            "fieldPath": "isOpeningStockEntered",
            "columnName": "isOpeningStockEntered",
            "affinity": "TEXT",
            "notNull": false
          },
          {
            "fieldPath": "retName",
            "columnName": "retName",
            "affinity": "TEXT",
            "notNull": false
          },
          {
            "fieldPath": "lastLogin",
            "columnName": "lastLogin",
            "affinity": "TEXT",
            "notNull": false
          }
        ],
        "primaryKey": {
          "columnNames": [
            "userId"
          ],
          "autoGenerate": false
        },
        "indices": [],
        "foreignKeys": []
      },
      {
        "tableName": "BrandListsItem",
        "createSql": "CREATE TABLE IF NOT EXISTS `${TABLE_NAME}` (`brandName` TEXT, `status` INTEGER NOT NULL, `modifiedOn` TEXT, `recordCreationDate` TEXT, `brandCode` TEXT, `brandId` INTEGER NOT NULL, PRIMARY KEY(`brandId`))",
        "fields": [
          {
            "fieldPath": "brandName",
            "columnName": "brandName",
            "affinity": "TEXT",
            "notNull": false
          },
          {
            "fieldPath": "status",
            "columnName": "status",
            "affinity": "INTEGER",
            "notNull": true
          },
          {
            "fieldPath": "modifiedOn",
            "columnName": "modifiedOn",
            "affinity": "TEXT",
            "notNull": false
          },
          {
            "fieldPath": "recordCreationDate",
            "columnName": "recordCreationDate",
            "affinity": "TEXT",
            "notNull": false
          },
          {
            "fieldPath": "brandCode",
            "columnName": "brandCode",
            "affinity": "TEXT",
            "notNull": false
          },
          {
            "fieldPath": "brandId",
            "columnName": "brandId",
            "affinity": "INTEGER",
            "notNull": true
          }
        ],
        "primaryKey": {
          "columnNames": [
            "brandId"
          ],
          "autoGenerate": false
        },
        "indices": [],
        "foreignKeys": []
      },
      {
        "tableName": "ProductCategoryListsItem",
        "createSql": "CREATE TABLE IF NOT EXISTS `${TABLE_NAME}` (`status` INTEGER NOT NULL, `productCategoryCode` TEXT, `modifiedOn` TEXT, `productCategoryId` INTEGER NOT NULL, `recordCreationDate` TEXT, `productCategoryName` TEXT, PRIMARY KEY(`productCategoryId`))",
        "fields": [
          {
            "fieldPath": "status",
            "columnName": "status",
            "affinity": "INTEGER",
            "notNull": true
          },
          {
            "fieldPath": "productCategoryCode",
            "columnName": "productCategoryCode",
            "affinity": "TEXT",
            "notNull": false
          },
          {
            "fieldPath": "modifiedOn",
            "columnName": "modifiedOn",
            "affinity": "TEXT",
            "notNull": false
          },
          {
            "fieldPath": "productCategoryId",
            "columnName": "productCategoryId",
            "affinity": "INTEGER",
            "notNull": true
          },
          {
            "fieldPath": "recordCreationDate",
            "columnName": "recordCreationDate",
            "affinity": "TEXT",
            "notNull": false
          },
          {
            "fieldPath": "productCategoryName",
            "columnName": "productCategoryName",
            "affinity": "TEXT",
            "notNull": false
          }
        ],
        "primaryKey": {
          "columnNames": [
            "productCategoryId"
          ],
          "autoGenerate": false
        },
        "indices": [],
        "foreignKeys": []
      },
      {
        "tableName": "ProductListsItem",
        "createSql": "CREATE TABLE IF NOT EXISTS `${TABLE_NAME}` (`status` INTEGER NOT NULL, `productName` TEXT, `modifiedOn` TEXT, `productCode` TEXT, `recordCreationDate` TEXT, `productId` INTEGER NOT NULL, PRIMARY KEY(`productId`))",
        "fields": [
          {
            "fieldPath": "status",
            "columnName": "status",
            "affinity": "INTEGER",
            "notNull": true
          },
          {
            "fieldPath": "productName",
            "columnName": "productName",
            "affinity": "TEXT",
            "notNull": false
          },
          {
            "fieldPath": "modifiedOn",
            "columnName": "modifiedOn",
            "affinity": "TEXT",
            "notNull": false
          },
          {
            "fieldPath": "productCode",
            "columnName": "productCode",
            "affinity": "TEXT",
            "notNull": false
          },
          {
            "fieldPath": "recordCreationDate",
            "columnName": "recordCreationDate",
            "affinity": "TEXT",
            "notNull": false
          },
          {
            "fieldPath": "productId",
            "columnName": "productId",
            "affinity": "INTEGER",
            "notNull": true
          }
        ],
        "primaryKey": {
          "columnNames": [
            "productId"
          ],
          "autoGenerate": false
        },
        "indices": [],
        "foreignKeys": []
      },
      {
        "tableName": "ModelListsItem",
        "createSql": "CREATE TABLE IF NOT EXISTS `${TABLE_NAME}` (`status` INTEGER NOT NULL, `modelName` TEXT, `modelCode` TEXT, `modifiedOn` TEXT, `productCategoryId` INTEGER NOT NULL, `recordCreationDate` TEXT, `modelType` INTEGER NOT NULL, `productId` INTEGER NOT NULL, `brandId` INTEGER NOT NULL, `serialisedMode` INTEGER NOT NULL, `modelId` INTEGER NOT NULL, PRIMARY KEY(`modelId`))",
        "fields": [
          {
            "fieldPath": "status",
            "columnName": "status",
            "affinity": "INTEGER",
            "notNull": true
          },
          {
            "fieldPath": "modelName",
            "columnName": "modelName",
            "affinity": "TEXT",
            "notNull": false
          },
          {
            "fieldPath": "modelCode",
            "columnName": "modelCode",
            "affinity": "TEXT",
            "notNull": false
          },
          {
            "fieldPath": "modifiedOn",
            "columnName": "modifiedOn",
            "affinity": "TEXT",
            "notNull": false
          },
          {
            "fieldPath": "productCategoryId",
            "columnName": "productCategoryId",
            "affinity": "INTEGER",
            "notNull": true
          },
          {
            "fieldPath": "recordCreationDate",
            "columnName": "recordCreationDate",
            "affinity": "TEXT",
            "notNull": false
          },
          {
            "fieldPath": "modelType",
            "columnName": "modelType",
            "affinity": "INTEGER",
            "notNull": true
          },
          {
            "fieldPath": "productId",
            "columnName": "productId",
            "affinity": "INTEGER",
            "notNull": true
          },
          {
            "fieldPath": "brandId",
            "columnName": "brandId",
            "affinity": "INTEGER",
            "notNull": true
          },
          {
            "fieldPath": "serialisedMode",
            "columnName": "serialisedMode",
            "affinity": "INTEGER",
            "notNull": true
          },
          {
            "fieldPath": "modelId",
            "columnName": "modelId",
            "affinity": "INTEGER",
            "notNull": true
          }
        ],
        "primaryKey": {
          "columnNames": [
            "modelId"
          ],
          "autoGenerate": false
        },
        "indices": [],
        "foreignKeys": []
      },
      {
        "tableName": "SkuListsItem",
        "createSql": "CREATE TABLE IF NOT EXISTS `${TABLE_NAME}` (`status` INTEGER NOT NULL, `skuDescription` TEXT, `modifiedOn` TEXT, `skuCode` TEXT, `productCategoryId` INTEGER NOT NULL, `recordCreationDate` TEXT, `skuName` TEXT, `productId` INTEGER NOT NULL, `skuId` INTEGER NOT NULL, `brandId` INTEGER NOT NULL, `modelId` INTEGER NOT NULL, `colorId` INTEGER NOT NULL, `serialisedMode` INTEGER NOT NULL, `price` INTEGER NOT NULL, PRIMARY KEY(`skuId`))",
        "fields": [
          {
            "fieldPath": "status",
            "columnName": "status",
            "affinity": "INTEGER",
            "notNull": true
          },
          {
            "fieldPath": "skuDescription",
            "columnName": "skuDescription",
            "affinity": "TEXT",
            "notNull": false
          },
          {
            "fieldPath": "modifiedOn",
            "columnName": "modifiedOn",
            "affinity": "TEXT",
            "notNull": false
          },
          {
            "fieldPath": "skuCode",
            "columnName": "skuCode",
            "affinity": "TEXT",
            "notNull": false
          },
          {
            "fieldPath": "productCategoryId",
            "columnName": "productCategoryId",
            "affinity": "INTEGER",
            "notNull": true
          },
          {
            "fieldPath": "recordCreationDate",
            "columnName": "recordCreationDate",
            "affinity": "TEXT",
            "notNull": false
          },
          {
            "fieldPath": "skuName",
            "columnName": "skuName",
            "affinity": "TEXT",
            "notNull": false
          },
          {
            "fieldPath": "productId",
            "columnName": "productId",
            "affinity": "INTEGER",
            "notNull": true
          },
          {
            "fieldPath": "skuId",
            "columnName": "skuId",
            "affinity": "INTEGER",
            "notNull": true
          },
          {
            "fieldPath": "brandId",
            "columnName": "brandId",
            "affinity": "INTEGER",
            "notNull": true
          },
          {
            "fieldPath": "modelId",
            "columnName": "modelId",
            "affinity": "INTEGER",
            "notNull": true
          },
          {
            "fieldPath": "colorId",
            "columnName": "colorId",
            "affinity": "INTEGER",
            "notNull": true
          },
          {
            "fieldPath": "serialisedMode",
            "columnName": "serialisedMode",
            "affinity": "INTEGER",
            "notNull": true
          },
          {
            "fieldPath": "price",
            "columnName": "price",
            "affinity": "INTEGER",
            "notNull": true
          }
        ],
        "primaryKey": {
          "columnNames": [
            "skuId"
          ],
          "autoGenerate": false
        },
        "indices": [],
        "foreignKeys": []
      },
      {
        "tableName": "SerialMaster",
        "createSql": "CREATE TABLE IF NOT EXISTS `${TABLE_NAME}` (`SerialMasterId` INTEGER NOT NULL, `SkuId` TEXT, `SalesChannelId` TEXT, `RetailerId` TEXT, `SerialNumber1` TEXT, `SerialNumber2` TEXT, `SerialNumber3` TEXT, `SerialNumber4` TEXT, `StockBinTypeMasterId` TEXT, `GrnDate` TEXT, `RecordCreationDate` TEXT, `ModifiedOn` TEXT, `OwnerMode` TEXT, PRIMARY KEY(`SerialMasterId`))",
        "fields": [
          {
            "fieldPath": "SerialMasterId",
            "columnName": "SerialMasterId",
            "affinity": "INTEGER",
            "notNull": true
          },
          {
            "fieldPath": "SkuId",
            "columnName": "SkuId",
            "affinity": "TEXT",
            "notNull": false
          },
          {
            "fieldPath": "SalesChannelId",
            "columnName": "SalesChannelId",
            "affinity": "TEXT",
            "notNull": false
          },
          {
            "fieldPath": "RetailerId",
            "columnName": "RetailerId",
            "affinity": "TEXT",
            "notNull": false
          },
          {
            "fieldPath": "SerialNumber1",
            "columnName": "SerialNumber1",
            "affinity": "TEXT",
            "notNull": false
          },
          {
            "fieldPath": "SerialNumber2",
            "columnName": "SerialNumber2",
            "affinity": "TEXT",
            "notNull": false
          },
          {
            "fieldPath": "SerialNumber3",
            "columnName": "SerialNumber3",
            "affinity": "TEXT",
            "notNull": false
          },
          {
            "fieldPath": "SerialNumber4",
            "columnName": "SerialNumber4",
            "affinity": "TEXT",
            "notNull": false
          },
          {
            "fieldPath": "StockBinTypeMasterId",
            "columnName": "StockBinTypeMasterId",
            "affinity": "TEXT",
            "notNull": false
          },
          {
            "fieldPath": "GrnDate",
            "columnName": "GrnDate",
            "affinity": "TEXT",
            "notNull": false
          },
          {
            "fieldPath": "RecordCreationDate",
            "columnName": "RecordCreationDate",
            "affinity": "TEXT",
            "notNull": false
          },
          {
            "fieldPath": "ModifiedOn",
            "columnName": "ModifiedOn",
            "affinity": "TEXT",
            "notNull": false
          },
          {
            "fieldPath": "OwnerMode",
            "columnName": "OwnerMode",
            "affinity": "TEXT",
            "notNull": false
          }
        ],
        "primaryKey": {
          "columnNames": [
            "SerialMasterId"
          ],
          "autoGenerate": false
        },
        "indices": [],
        "foreignKeys": []
      },
      {
        "tableName": "StockItems",
        "createSql": "CREATE TABLE IF NOT EXISTS `${TABLE_NAME}` (`RetailerStockId` INTEGER NOT NULL, `RetailerId` TEXT, `SkuId` TEXT, `Quantity` TEXT, `StockBinTypeMasterID` TEXT, `RecordCreationDate` TEXT, `ModifiedOn` TEXT, PRIMARY KEY(`RetailerStockId`))",
        "fields": [
          {
            "fieldPath": "RetailerStockId",
            "columnName": "RetailerStockId",
            "affinity": "INTEGER",
            "notNull": true
          },
          {
            "fieldPath": "RetailerId",
            "columnName": "RetailerId",
            "affinity": "TEXT",
            "notNull": false
          },
          {
            "fieldPath": "SkuId",
            "columnName": "SkuId",
            "affinity": "TEXT",
            "notNull": false
          },
          {
            "fieldPath": "Quantity",
            "columnName": "Quantity",
            "affinity": "TEXT",
            "notNull": false
          },
          {
            "fieldPath": "StockBinTypeMasterID",
            "columnName": "StockBinTypeMasterID",
            "affinity": "TEXT",
            "notNull": false
          },
          {
            "fieldPath": "RecordCreationDate",
            "columnName": "RecordCreationDate",
            "affinity": "TEXT",
            "notNull": false
          },
          {
            "fieldPath": "ModifiedOn",
            "columnName": "ModifiedOn",
            "affinity": "TEXT",
            "notNull": false
          }
        ],
        "primaryKey": {
          "columnNames": [
            "RetailerStockId"
          ],
          "autoGenerate": false
        },
        "indices": [],
        "foreignKeys": []
      },
      {
        "tableName": "StockTypeItem",
        "createSql": "CREATE TABLE IF NOT EXISTS `${TABLE_NAME}` (`StockBinTypeMasterId` INTEGER NOT NULL, `StockBinTypeDesc` TEXT, `StockStatusId` TEXT, `StockBinTypeCode` TEXT, `IsAdjustmentAllowed` TEXT, `Active` INTEGER NOT NULL, `StockOwner` TEXT, `RecordCreationDate` TEXT, PRIMARY KEY(`StockBinTypeMasterId`))",
        "fields": [
          {
            "fieldPath": "StockBinTypeMasterId",
            "columnName": "StockBinTypeMasterId",
            "affinity": "INTEGER",
            "notNull": true
          },
          {
            "fieldPath": "StockBinTypeDesc",
            "columnName": "StockBinTypeDesc",
            "affinity": "TEXT",
            "notNull": false
          },
          {
            "fieldPath": "StockStatusId",
            "columnName": "StockStatusId",
            "affinity": "TEXT",
            "notNull": false
          },
          {
            "fieldPath": "StockBinTypeCode",
            "columnName": "StockBinTypeCode",
            "affinity": "TEXT",
            "notNull": false
          },
          {
            "fieldPath": "IsAdjustmentAllowed",
            "columnName": "IsAdjustmentAllowed",
            "affinity": "TEXT",
            "notNull": false
          },
          {
            "fieldPath": "Active",
            "columnName": "Active",
            "affinity": "INTEGER",
            "notNull": true
          },
          {
            "fieldPath": "StockOwner",
            "columnName": "StockOwner",
            "affinity": "TEXT",
            "notNull": false
          },
          {
            "fieldPath": "RecordCreationDate",
            "columnName": "RecordCreationDate",
            "affinity": "TEXT",
            "notNull": false
          }
        ],
        "primaryKey": {
          "columnNames": [
            "StockBinTypeMasterId"
          ],
          "autoGenerate": false
        },
        "indices": [],
        "foreignKeys": []
      },
      {
        "tableName": "ReportTypeItem",
        "createSql": "CREATE TABLE IF NOT EXISTS `${TABLE_NAME}` (`reportTypeMasterId` INTEGER NOT NULL, `reportName` TEXT, `status` TEXT, `createdOn` TEXT, `modifiedOn` TEXT, PRIMARY KEY(`reportTypeMasterId`))",
        "fields": [
          {
            "fieldPath": "reportTypeMasterId",
            "columnName": "reportTypeMasterId",
            "affinity": "INTEGER",
            "notNull": true
          },
          {
            "fieldPath": "reportName",
            "columnName": "reportName",
            "affinity": "TEXT",
            "notNull": false
          },
          {
            "fieldPath": "status",
            "columnName": "status",
            "affinity": "TEXT",
            "notNull": false
          },
          {
            "fieldPath": "createdOn",
            "columnName": "createdOn",
            "affinity": "TEXT",
            "notNull": false
          },
          {
            "fieldPath": "modifiedOn",
            "columnName": "modifiedOn",
            "affinity": "TEXT",
            "notNull": false
          }
        ],
        "primaryKey": {
          "columnNames": [
            "reportTypeMasterId"
          ],
          "autoGenerate": false
        },
        "indices": [],
        "foreignKeys": []
      },
      {
        "tableName": "GRNStatusItem",
        "createSql": "CREATE TABLE IF NOT EXISTS `${TABLE_NAME}` (`StatusId` INTEGER NOT NULL, `StatusName` TEXT, `Status` TEXT, PRIMARY KEY(`StatusId`))",
        "fields": [
          {
            "fieldPath": "StatusId",
            "columnName": "StatusId",
            "affinity": "INTEGER",
            "notNull": true
          },
          {
            "fieldPath": "StatusName",
            "columnName": "StatusName",
            "affinity": "TEXT",
            "notNull": false
          },
          {
            "fieldPath": "Status",
            "columnName": "Status",
            "affinity": "TEXT",
            "notNull": false
          }
        ],
        "primaryKey": {
          "columnNames": [
            "StatusId"
          ],
          "autoGenerate": false
        },
        "indices": [],
        "foreignKeys": []
      },
      {
        "tableName": "OffLineData",
        "createSql": "CREATE TABLE IF NOT EXISTS `${TABLE_NAME}` (`id` INTEGER PRIMARY KEY AUTOINCREMENT NOT NULL, `type` TEXT, `name` TEXT, `requestData` TEXT, `status` TEXT, `time` TEXT, `remark` TEXT)",
        "fields": [
          {
            "fieldPath": "id",
            "columnName": "id",
            "affinity": "INTEGER",
            "notNull": true
          },
          {
            "fieldPath": "type",
            "columnName": "type",
            "affinity": "TEXT",
            "notNull": false
          },
          {
            "fieldPath": "name",
            "columnName": "name",
            "affinity": "TEXT",
            "notNull": false
          },
          {
            "fieldPath": "requestData",
            "columnName": "requestData",
            "affinity": "TEXT",
            "notNull": false
          },
          {
            "fieldPath": "status",
            "columnName": "status",
            "affinity": "TEXT",
            "notNull": false
          },
          {
            "fieldPath": "time",
            "columnName": "time",
            "affinity": "TEXT",
            "notNull": false
          },
          {
            "fieldPath": "remark",
            "columnName": "remark",
            "affinity": "TEXT",
            "notNull": false
          }
        ],
        "primaryKey": {
          "columnNames": [
            "id"
          ],
          "autoGenerate": true
        },
        "indices": [],
        "foreignKeys": []
      },
      {
        "tableName": "MenuListData",
        "createSql": "CREATE TABLE IF NOT EXISTS `${TABLE_NAME}` (`menuId` INTEGER NOT NULL, `menuName` TEXT, `displayOrder` TEXT, `showInMenuBar` TEXT, PRIMARY KEY(`menuId`))",
        "fields": [
          {
            "fieldPath": "menuId",
            "columnName": "menuId",
            "affinity": "INTEGER",
            "notNull": true
          },
          {
            "fieldPath": "menuName",
            "columnName": "menuName",
            "affinity": "TEXT",
            "notNull": false
          },
          {
            "fieldPath": "displayOrder",
            "columnName": "displayOrder",
            "affinity": "TEXT",
            "notNull": false
          },
          {
            "fieldPath": "showInMenuBar",
            "columnName": "showInMenuBar",
            "affinity": "TEXT",
            "notNull": false
          }
        ],
        "primaryKey": {
          "columnNames": [
            "menuId"
          ],
          "autoGenerate": false
        },
        "indices": [],
        "foreignKeys": []
      },
      {
        "tableName": "NotificationData",
        "createSql": "CREATE TABLE IF NOT EXISTS `${TABLE_NAME}` (`id` INTEGER PRIMARY KEY AUTOINCREMENT NOT NULL, `title` TEXT, `description` TEXT, `dateTime` TEXT)",
        "fields": [
          {
            "fieldPath": "id",
            "columnName": "id",
            "affinity": "INTEGER",
            "notNull": true
          },
          {
            "fieldPath": "title",
            "columnName": "title",
            "affinity": "TEXT",
            "notNull": false
          },
          {
            "fieldPath": "description",
            "columnName": "description",
            "affinity": "TEXT",
            "notNull": false
          },
          {
            "fieldPath": "dateTime",
            "columnName": "dateTime",
            "affinity": "TEXT",
            "notNull": false
          }
        ],
        "primaryKey": {
          "columnNames": [
            "id"
          ],
          "autoGenerate": true
        },
        "indices": [],
        "foreignKeys": []
      }
    ],
    "setupQueries": [
      "CREATE TABLE IF NOT EXISTS room_master_table (id INTEGER PRIMARY KEY,identity_hash TEXT)",
      "INSERT OR REPLACE INTO room_master_table (id,identity_hash) VALUES(42, \"118320bc9fd318237876935a3db17dcc\")"
    ]
  }
}